…
``` r
# devtools::install_github("djnavarro/asciify")
library("asciify")
```

The core function in the package is `ascii_map`, which takes a path to an image file as the input, and returns a tibble converting the image to a character map:

``` r
bayes_img <- ascii_data("bayes.png")      # path to the bayes image
bayes_map <- ascii_map(file = bayes_img)  # construct ASCII map
bayes_map
```

    ## # A tibble: 1,404 x 3
    ##        x     y label
    ##    <int> <int> <chr>
    ##  1    44     2 r    
    ##  2    45     2 f    
    ##  3    46     2 q    
    ##  4    47     2 e    
    ##  5    48     2 o    
    ##  6    41     3 z    
    ##  7    42     3 u    
    ##  8    43     3 e    
    ##  9    44     3 s    
    ## 10    45     3 o    
    ## # ... with 1,394 more rows
…
