Creates ASCII art from an image — ascii_map • asciify
…
    Examples

bayes_img <- ascii_data("bayes.png")
bayes_map <- ascii_map(file = bayes_img)
#> Warning: Assuming third dimension corresponds to colour
#> Warning: Using a rescale value of 0.175
bayes_map
#> # A tibble: 1,404 x 3
#>        x     y label
#>    <int> <int> <chr>
#>  1    44     2 r    
#>  2    45     2 v    
#>  3    46     2 b    
#>  4    47     2 e    
#>  5    48     2 o    
#>  6    41     3 y    
#>  7    42     3 u    
#>  8    43     3 e    
#>  9    44     3 s    
#> 10    45     3 o    
#> # … with 1,394 more rows
…
